Eksplorasi AED Final
…
Impoer Data

data <- read_csv("D:\\Mine\\Kuliah Journey\\Semester 4\\Analisis Eksplorasi Data\\susenas_depok_merged_FIX_FIX.csv")

## Rows: 1037 Columns: 23
## ── Column specification ────────────────────────────────────────────────────────
## Delimiter: ","
## dbl (23): URUT, R101, R102, R105, FOOD, NONFOOD, EXPEND, KAPITA, KALORI_KAP,...
## 
## ℹ Use `spec()` to retrieve the full column specification for this data.
## ℹ Specify the column types or set `show_col_types = FALSE` to quiet this message.

data

## # A tibble: 1,037 × 23
##      URUT  R101  R102  R105     FOOD  NONFOOD EXPEND KAPITA KALORI_KAP PROTE_KAP
##     <dbl> <dbl> <dbl> <dbl>    <dbl>    <dbl>  <dbl>  <dbl>      <dbl>     <dbl>
##  1 500091    32    76     1 3712543. 4579733. 8.29e6 4.15e6      1582.      57.8
##  2 500117    32    76     1 1978286. 3228167. 5.21e6 1.30e6      1352.      40.6
##  3 500129    32    76     1 3031286. 4845500  7.88e6 1.97e6      2023.      64.5
##  4 500139    32    76     1 1500000  4308750  5.81e6 5.81e6      3057.     109. 
##  5 500170    32    76     1 4943143. 2884000  7.83e6 1.57e6      1556.      49.9
##  6 500172    32    76     1 2692457. 2897125  5.59e6 1.40e6      2257.      60.5
##  7 500174    32    76     1 4994571. 5044500  1.00e7 1.67e6      1687.      53.5
##  8 500192    32    76     1 1834671. 1906667. 3.74e6 9.35e5      1119.      47.0
##  9 500212    32    76     1 2725286. 6233917. 8.96e6 8.96e6      2476.      68.9
## 10 500223    32    76     1 1825500  2870250. 4.70e6 9.39e5      1441.      46.5
## # ℹ 1,027 more rows
## # ℹ 13 more variables: LEMAK_KAP <dbl>, KARBO_KAP <dbl>, R1802 <dbl>,
## #   R1810A <dbl>, R2001B <dbl>, R2001C <dbl>, R2001D <dbl>, R2001F <dbl>,
## #   R2001G <dbl>, R2001H <dbl>, R2001K <dbl>, R2001M <dbl>, Banyak_Anak <dbl>
…
